#size #insertionw #quickw #insertionb #quickb 
128  0.000090 0.000044 0.000002 0.000010
256  0.000358 0.000240 0.000005 0.000021
512  0.001322 0.000651 0.000008 0.000028
1024  0.002814 0.000840 0.000005 0.000018
2048  0.006510 0.003095 0.000008 0.000031
4096  0.025110 0.011075 0.000017 0.000064
8192  0.095089 0.044295 0.000034 0.000134
16384  0.382758 0.177878 0.000075 0.000314
32768  1.545749 0.691714 0.000134 0.000587
65536  6.225330 2.768957 0.000304 0.001424
131072  24.996094 11.639165 0.000663 0.002934

